[
  {
    "id": 1,
    "titulo": "El señor de los anillos",
    "autor_nombre": "J.R.R. Tolkien",
    "autor_nacionalidad": "Inglaterra",
    "autor_fecha_nacimiento": "1892-01-03",
    "autor_genero": "Fantasía",
    "nombre_editorial": "Minotauro",
    "ubicacion_editorial": "España",
    "isbn": "9788445072515",
    "precio": 20.5,
    "cantidad_stock": 100
  },
  {
    "id": 2,
    "titulo": "Cien años de soledad",
    "autor_nombre": "Gabriel García Márquez",
    "autor_nacionalidad": "Colombia",
    "autor_fecha_nacimiento": "1927-03-06",
    "autor_genero": "Realismo mágico",
    "nombre_editorial": "Diana",
    "ubicacion_editorial": "Colombia",
    "isbn": "9788423349802",
    "precio": 18.75,
    "cantidad_stock": 75
  },
  {
    "id": 3,
    "titulo": "1984",
    "autor_nombre": "George Orwell",
    "autor_nacionalidad": "Reino Unido",
    "autor_fecha_nacimiento": "1903-06-25",
    "autor_genero": "Ciencia ficción",
    "nombre_editorial": "Secker & Warburg",
    "ubicacion_editorial": "Reino Unido",
    "isbn": "978-0451524935",
    "precio": 15.99,
    "cantidad_stock": 50
  },
  {
    "id": 6,
    "titulo": "Moby Dick",
    "autor_nombre": "Herman Melville",
    "autor_nacionalidad": "Estados Unidos",
    "autor_fecha_nacimiento": "1819-08-01",
    "autor_genero": "Ficción de aventuras",
    "nombre_editorial": "Harper & Brothers",
    "ubicacion_editorial": "Estados Unidos",
    "isbn": "9780142000083",
    "precio": 22.99,
    "cantidad_stock": 80
  },
  {
    "id": 7,
    "titulo": "Orgullo y prejuicio",
    "autor_nombre": "Jane Austen",
    "autor_nacionalidad": "Reino Unido",
    "autor_fecha_nacimiento": "1775-12-16",
    "autor_genero": "Novela romántica",
    "nombre_editorial": "Thomas Egerton",
    "ubicacion_editorial": "Reino Unido",
    "isbn": "9780141439518",
    "precio": 17.5,
    "cantidad_stock": 90
  },
  {
    "id": 8,
    "titulo": "El gran Gatsby",
    "autor_nombre": "F. Scott Fitzgerald",
    "autor_nacionalidad": "Estados Unidos",
    "autor_fecha_nacimiento": "1896-09-24",
    "autor_genero": "Novela contemporánea",
    "nombre_editorial": "Charles Scribner's Sons",
    "ubicacion_editorial": "Estados Unidos",
    "isbn": "9780743273565",
    "precio": 19.95,
    "cantidad_stock": 60
  },
  {
    "id": 9,
    "titulo": "Don Quijote de la Mancha",
    "autor_nombre": "Miguel de Cervantes",
    "autor_nacionalidad": "España",
    "autor_fecha_nacimiento": "1547-09-29",
    "autor_genero": "Novela picaresca",
    "nombre_editorial": "Francisco de Robles",
    "ubicacion_editorial": "España",
    "isbn": "9788424119656",
    "precio": 16,
    "cantidad_stock": 70
  },
  {
    "id": 10,
    "titulo": "Matar un ruiseñor",
    "autor_nombre": "Harper Lee",
    "autor_nacionalidad": "Estados Unidos",
    "autor_fecha_nacimiento": "1926-04-28",
    "autor_genero": "Novela dramática",
    "nombre_editorial": "J. B. Lippincott & Co.",
    "ubicacion_editorial": "Estados Unidos",
    "isbn": "9780061120084",
    "precio": 21.99,
    "cantidad_stock": 85
  },
  {
    "id": 11,
    "titulo": "Crimen y castigo",
    "autor_nombre": "Fyodor Dostoevsky",
    "autor_nacionalidad": "Rusia",
    "autor_fecha_nacimiento": "1821-11-11",
    "autor_genero": "Novela psicológica",
    "nombre_editorial": "The Russian Messenger",
    "ubicacion_editorial": "Rusia",
    "isbn": "9780486415871",
    "precio": 18.5,
    "cantidad_stock": 95
  }
]